{
  "errorCode": null,
  "resultCode": "0",
  "resultMsg": "SUCCESS",
  "resultObject": {
    "records": 241,
    "pageInfo": {
      "pageCount": 35,
      "pageIndex": 1,
      "pageSize": 7,
      "total": 241
    },
    "page": 1,
    "rows": [
      {
        "adaptiveBusinessDomain": "ALL",
        "adaptiveRange": "MODEL",
        "comAcctId": null,
        "createBy": 1,
        "createDate": 1668129652000,
        "createUserCode": "admin",
        "createUserName": "admin",
        "dataClassifyCode": null,
        "dirId": 0,
        "itemCode": null,
        "levelCode": null,
        "statusCd": "1",
        "termsClass": "WORD",
        "termsCnName": "fdfdf",
        "termsDesc": "",
        "termsEnName": "fdfdfdfd",
        "termsFullName": "fdfdfdfd",
        "termsId": 397,
        "termsShortName": "dfdfd222",
        "termsSource": "",
        "termsSynonyms": "",
        "updateBy": 1,
        "updateDate": 1689932469000,
        "updateUserCode": "admin",
        "updateUserName": "admin",
        "versionId": 2
      },
      {
        "adaptiveBusinessDomain": "ALL",
        "adaptiveRange": "MODEL",
        "comAcctId": null,
        "createBy": 1,
        "createDate": 1647313160000,
        "createUserCode": "admin",
        "createUserName": "admin",
        "dataClassifyCode": null,
        "dirId": 0,
        "itemCode": null,
        "levelCode": null,
        "statusCd": "1",
        "termsClass": "WORD",
        "termsCnName": "号码",
        "termsDesc": "",
        "termsEnName": "accs_nbr",
        "termsFullName": "accs_nbr",
        "termsId": 394,
        "termsShortName": "accs_nbr",
        "termsSource": "",
        "termsSynonyms": "msisdn,acc_nbr",
        "updateBy": 1,
        "updateDate": 1647313160000,
        "updateUserCode": "admin",
        "updateUserName": "admin",
        "versionId": 1
      },
      {
        "adaptiveBusinessDomain": "ALL",
        "adaptiveRange": "ALL",
        "comAcctId": 174,
        "createBy": 248,
        "createDate": 1641864957000,
        "createUserCode": null,
        "createUserName": null,
        "dataClassifyCode": null,
        "dirId": 0,
        "itemCode": null,
        "levelCode": null,
        "statusCd": "1",
        "termsClass": "WORD",
        "termsCnName": "客户",
        "termsDesc": "",
        "termsEnName": "customer",
        "termsFullName": "customer",
        "termsId": 393,
        "termsShortName": "cust",
        "termsSource": "",
        "termsSynonyms": "",
        "updateBy": 248,
        "updateDate": 1641864957000,
        "updateUserCode": null,
        "updateUserName": null,
        "versionId": 1
      },
      {
        "adaptiveBusinessDomain": "ALL",
        "adaptiveRange": "ALL",
        "comAcctId": 174,
        "createBy": 248,
        "createDate": 1641864928000,
        "createUserCode": null,
        "createUserName": null,
        "dataClassifyCode": null,
        "dirId": 0,
        "itemCode": null,
        "levelCode": null,
        "statusCd": "1",
        "termsClass": "WORD",
        "termsCnName": "test",
        "termsDesc": "",
        "termsEnName": "test",
        "termsFullName": "test",
        "termsId": 392,
        "termsShortName": "tst",
        "termsSource": "",
        "termsSynonyms": "",
        "updateBy": 248,
        "updateDate": 1641864928000,
        "updateUserCode": null,
        "updateUserName": null,
        "versionId": 1
      },
      {
        "adaptiveBusinessDomain": "ALL",
        "adaptiveRange": "MODEL",
        "comAcctId": null,
        "createBy": 1,
        "createDate": 1638426863000,
        "createUserCode": "admin",
        "createUserName": "admin",
        "dataClassifyCode": null,
        "dirId": 0,
        "itemCode": null,
        "levelCode": null,
        "statusCd": "1",
        "termsClass": "WORD",
        "termsCnName": "平均",
        "termsDesc": "",
        "termsEnName": "AVERAGE",
        "termsFullName": "AVERAGE",
        "termsId": 391,
        "termsShortName": "AVG",
        "termsSource": "",
        "termsSynonyms": "",
        "updateBy": 1,
        "updateDate": 1638426863000,
        "updateUserCode": "admin",
        "updateUserName": "admin",
        "versionId": 1
      },
      {
        "adaptiveBusinessDomain": "ALL",
        "adaptiveRange": "MODEL",
        "comAcctId": null,
        "createBy": 1,
        "createDate": 1638426710000,
        "createUserCode": "admin",
        "createUserName": "admin",
        "dataClassifyCode": null,
        "dirId": 0,
        "itemCode": null,
        "levelCode": null,
        "statusCd": "1",
        "termsClass": "WORD",
        "termsCnName": "存量",
        "termsDesc": "",
        "termsEnName": "RESERVE",
        "termsFullName": "RESERVE",
        "termsId": 390,
        "termsShortName": "RESV",
        "termsSource": "",
        "termsSynonyms": "",
        "updateBy": 1,
        "updateDate": 1638426710000,
        "updateUserCode": "admin",
        "updateUserName": "admin",
        "versionId": 1
      },
      {
        "adaptiveBusinessDomain": "ALL",
        "adaptiveRange": "MODEL",
        "comAcctId": null,
        "createBy": 1,
        "createDate": 1638426675000,
        "createUserCode": "admin",
        "createUserName": "admin",
        "dataClassifyCode": null,
        "dirId": 0,
        "itemCode": null,
        "levelCode": null,
        "statusCd": "1",
        "termsClass": "WORD",
        "termsCnName": "新增",
        "termsDesc": "",
        "termsEnName": "NEW",
        "termsFullName": "NEW",
        "termsId": 389,
        "termsShortName": "NEW",
        "termsSource": "",
        "termsSynonyms": "",
        "updateBy": 1,
        "updateDate": 1638426675000,
        "updateUserCode": "admin",
        "updateUserName": "admin",
        "versionId": 1
      }
    ]
  }
}
